{
  "$schema": "../schema.json",
  "id": 1,
  "title": "Hej, tomtegubbar",
  "melody": "Hej, tomtegubbar",
  "verses": [
    {
      "lines": [
        "Hej, tomtegubbar, slå i glasen och låt oss lustiga vara!",
        "Hej, tomtegubbar, slå i glasen och låt oss lustiga vara!",
        "En liten tid vi leva här, med mycket möda och stort besvär.",
        "Hej, tomtegubbar, slå i glasen och låt oss lustiga vara!"
      ]
    }
  ]
}
