{
  "$schema": "../schema.json",
  "id": 2,
  "title": "Kräftsmällen",
  "melody": "Melodi: Var nöjd med allt som livet ger, Text: Oscar Årling (2016)",
  "verses": [
    {
      "lines": [
        " Ta supen, höj den högt i skyn ",
        " Å drick så att du nästan spyr ",
        " Glöm bort ditt nummer, språk, hyfs å ditt namn! ",
        " En fröjd att bara släppa loss ",
        " Ta upp en stol och börja slåss ",
        " För ingen kommer minnas nåt imorn "
      ]
    }
  ]
}
