{
  "$schema": "../schema.json",
  "id": 4,
  "title": "Brännlängtan",
  "melody": "Melodi: Den blomstertid nu kommer, Text: Oscar Årling (2018)",
  "verses": [
    {
      "lines": [

        " Till havs vi nu har färdats ",
        " I arton långa dar ",
        " Å öknen genomhärdat ",
        " Upå en dromedar ",
        " Men ändå vi ej längta ",
        " Till brunnens svala djup ",
        " Vi söker mera bränna ",
        " Ifrån en redig sup! "

      ]
    }
  ]
}
